K0    P0max  Plab(GeV/c)  PT(GeV/c)  PL(GeV/c)  Kmin(Gev)  Hydrogen(ub/Gev2)  Deuterium(ub/GeV2)
5.0   1.417  1.0          0.500      0.029      1.36       2.27e+1   0.05e+1         
5.0   1.417  1.0          0.625      -0.129     1.52       7.82e+0   0.16e+0                          2.06   0.03  E+1
5.0   1.417  1.0          0.750      -0.350     1.83       1.88e+0   0.03e+0                          6.57   0.06  E+0
5.0   1.417  1.0          0.875      -0.678     2.61       1.60e-1   0.06e-1                          9.39   0.15  E-1
5.0   1.417  2.0          0.500      0.460      2.31       1.07e+1   0.02e+1         
5.0   1.417  2.0          0.625      0.392      2.41       3.77e+0   0.11e+0         
5.0   1.417  2.0          0.750      0.308      2.55       1.31e+0   0.04e+0         
5.0   1.417  2.0          0.877      0.203      2.75       4.46e-1   0.19e-1         
5.0   1.417  2.0          1.000      0.081      3.02       1.48e-1   0.02e-1                          4.29   0.06  E-1
5.0   1.417  2.0          1.125      -0.064     3.43       3.28e-2   0.33e-2         
5.0   1.417  2.0          1.250      -0.235     4.07       6.21e-3   0.57e-3                          3.37   0.11  E-2
5.0   1.417  3.0          0.625      -0.752     3.39       1.35e+0   0.02e+0         
5.0   1.417  3.0          0.750      0.697      3.51       4.43e-1   0.09e-1                          9.81   0.15  E-1
5.0   1.417  3.0          0.875      0.632      3.66       1.57e-1   0.06e-1         
5.0   1.417  3.0          1.000      0.556      3.86       5.89e-2   0.33e-2         
5.0   1.417  3.0          1.125      0.468      4.12       1.36e-2   0.05e-2                          4.12   0.10  E-2
5.0   1.417  3.0          1.250      0.368      4.45       3.13e-3   0.56e-3         
5.0   1.417  3.0          1.375      0.255      4.90       2.18e-4   0.38e-4         
5.0   1.417  4.0          0.875      0.988      4.63       3.14e-2   0.17e-2         
5.0   1.417  4.0          1.000      0.932      4.80       6.92e-3   0.38e-3         
7.0   1.714  1.0          0.500      -0.052     1.36       3.14e+1   0.06e+1         
7.0   1.714  1.0          0.625      -0.233     1.52       1.03e+1   0.01e+1                          2.64   0.03  E+1
7.0   1.714  1.0          0.750      -0.485     1.83       2.63e+0   0.09e+0         
7.0   1.714  1.0          0.875      -0.861     2.61       2.40e-1   0.08e-1                          1.30   0.02  E+0
7.0   1.714  2.0          0.500      0.358      2.31       1.66e+1   0.02e+1         
7.0   1.714  2.0          0.625      0.280      2.41       6.04e+0   0.11e+0         
7.0   1.714  2.0          0.750      0.183      2.55       2.32e+0   0.05e+0         
7.0   1.714  2.0          0.875      0.065      2.75       8.47e-1   0.19e-1         
7.0   1.714  2.0          1.000      -0.076     3.02       2.77e-1   0.11e-1         
7.0   1.714  2.0          1.125      -0.242     3.43       6.92e-2   0.35e-2         
7.0   1.714  2.0          1.250      -0.438     4.07       1.40e-2   0.10e-2         
7.0   1.714  2.0          1.375      -0.669     5.22       1.50e-3   0.16e-3         
7.0   1.714  3.0          0.625      0.606      3.39       3.13e+0   0.03e+0         
7.0   1.714  3.0          0.750      0.544      3.51       1.17e+0   0.01e+0                          2.57   0.03  E+0
7.0   1.714  3.0          0.875      0.469      3.66       4.64e-1   0.06e-1         
7.0   1.714  3.0          1.000      0.382      3.86       1.74e-1   0.02e-1         
7.0   1.714  3.0          1.125      0.282      4.12       5.30e-2   0.07e-2                          1.42   0.02  E-1
7.0   1.714  3.0          1.250      0.167      4.45       1.65e-2   0.08e-2         
7.0   1.714  3.0          1.375      0.038      4.90       3.78e-3   0.31e-3         
7.0   1.714  3.0          1.500      -0.106     5.53       7.37e-4   0.03e-4         
7.0   1.714  3.0          1.625      -0.268     6.46       1.24e-4   0.35e-4         
7.0   1.714  4.0          0.875      0.792      4.63       2.36e-1   0.06e-1         
7.0   1.714  4.0          1.001      0.728      4.81       8.71e-2   0.30e-2         
7.0   1.714  4.0          1.125      0.656      5.02       2.88e-2   0.14e-2         
7.0   1.714  4.0          1.250      0.573      5.28       7.41e-3   0.52e-3         
7.0   1.714  4.0          1.375      0.481      5.61       2.30e-3   0.18e-3         
7.0   1.714  4.0          1.500      0.379      6.03       5.65e-4   0.57e-4         
7.0   1.714  4.0          1.625      0.267      6.58       7.95e-5   1.74e-5         
7.0   1.714  5.0          1.002      1.034      5.78       3.24e-2   0.06e-2                          7.95   0.10  E-2
7.0   1.714  5.0          1.125      0.978      5.97       8.76e-3   0.41e-3         
7.0   1.714  5.0          1.250      0.913      6.20       2.31e-3   0.11e-3         
7.0   1.714  5.0          1.375      0.841      6.49       6.49e-4   0.26e-4                          1.84   0.06  E-3
7.0   1.714  5.0          1.500      0.761      6.83       6.71e-5   1.41e-5         
7.0   1.714  5.0          1.127      1.128      6.46       4.47e-3   0.23e-3         
7.0   1.714  5.0          1.250      1.070      6.68       1.12e-3   0.11e-3         
7.0   1.714  5.0          1.376      1.004      6.95       8.14e-5   1.57e-5         
9.0   1.967  1.0          0.500      -0.114     1.36       3.77e+1   0.09e+1         
9.0   1.967  1.0          0.625      -0.315     1.52       1.18e+1   0.02e+1                          3.19   0.05  E+1
9.0   1.967  1.0          0.750      -0.596     1.83       3.08e+0   0.08e+0         
9.0   1.967  1.0          0.875      -1.014     2.61       3.12e-1   0.08e-1                          1.54   0.02  E+0
9.0   1.967  2.0          0.500      0.285      2.31       2.20e+1   0.03e+1         
9.0   1.967  2.0          0.625      0.199      2.41       8.25e+0   0.12e+0         
9.0   1.967  2.0          0.750      0.091      2.55       3.06e+0   0.05e+0         
9.0   1.967  2.0          0.875      0.040      2.75       1.15e+0   0.01e+0         
9.0   1.967  2.0          1.000      -0.197     3.02       3.64e-1   0.14e-1         
9.0   1.967  2.0          1.125      -0.382     3.43       9.87e-2   0.61e-2         
9.0   1.967  2.0          1.250      -0.600     4.07       1.87e-2   0.11e-2         
9.0   1.967  2.0          1.375      -0.856     5.22       2.55e-3   0.21e-3         
9.0   1.967  2.0          1.500      -1.162     7.85       3.41e-4   0.83e-4         
9.0   1.967  3.0          0.625      0.506      3.39       4.92e+0   0.10e+0         
9.0   1.967  3.0          0.750      0.436      3.51       1.95e+0   0.02e+0         
9.0   1.967  3.0          0.875      0.353      3.66       7.68e-1   0.09e-1         
9.0   1.967  3.0          1.000      0.256      3.86       2.04e-1   0.04e-1         
9.0   1.967  3.0          1.125      0.145      4.12       9.34e-2   0.15e-2         
9.0   1.967  3.0          1.250      0.018      4.45       3.01e-2   0.06e-2         
9.0   1.967  3.0          1.375      -0.126     4.90       8.38e-3   0.28e-3         
9.0   1.967  3.0          1.500      -0.287     5.53       1.46e-3   0.10e-3         
9.0   1.967  3.0          1.625      -0.467     6.45       2.63e-4   0.46e-4         
9.0   1.967  3.0          1.707      -0.596     7.34       1.26e-4   0.31e-4         
9.0   1.967  4.0          0.895      0.657      4.63       4.77e-1   0.09e-1         
9.0   1.967  4.0          1.000      0.586      4.80       1.91e-1   0.01e-1                          4.46   0.02  E-1
9.0   1.967  4.0          1.125      0.504      5.02       6.80e-2   0.13e-2         
9.0   1.967  4.0          1.250      0.413      5.38       2.16e-2   0.06e-2         
9.0   1.967  4.0          1.375      0.310      5.62       6.97e-3   0.50e-3         
9.0   1.967  4.0          1.500      0.197      6.03       2.09e-3   0.08e-3                          6.5   0.17   E-3
9.0   1.967  4.0          1.625      0.072      6.58       5.79e-4   0.49e-4         
9.0   1.967  4.0          1.750      -0.065     7.30       1.07e-4   0.17e-4         
9.0   1.967  4.0          1.875      -0.215     8.28       2.24e-5   0.93e-5         
9.0   1.967  5.0          1.003      0.869      5.78       1.07e-1   0.02e-1         
9.0   1.967  5.0          1.125      0.806      5.97       3.85e-2   0.11e-2         
9.0   1.967  5.0          1.250      0.734      6.20       1.23e-2   0.03e-2         
9.0   1.967  5.0          1.375      0.654      6.49       4.22e-3   0.13e-3         
9.0   1.967  5.0          1.500      0.566      6.83       1.30e-3   0.10e-3         
9.0   1.967  5.0          1.625      0.469      7.26       3.94e-4   0.43e-4         
9.0   1.967  5.0          1.750      0.363      7.78       1.01e-4   0.17e-4         
9.0   1.967  5.0          1.875      0.249      8.44       1.96e-5   0.81e-5         
9.0   1.967  6.0          1.250      1.022      7.16       5.87e-3   0.17e-3         
9.0   1.967  6.0          1.375      0.956      7.42       1.79e-3   0.06e-3                          4.99   0.14  E-3
9.0   1.967  6.0          1.500      0.803      7.72       4.29e-4   0.43e-4         
9.0   1.967  6.0          1.625      0.804      8.09       1.56e-4   0.14e-4                          4.56   0.30  E-4
9.0   1.967  6.0          1.750      0.717      8.53       2.11e-5   0.82e-5         
9.0   1.967  7.0          1.500      1.172      8.65       1.31e-4   0.19e-4         
11.0  2.192  1.0          0.500      -0.166     1.36       3.65e+1   0.04e+1         
11.0  2.192  1.0          0.625      -0.385     1.52       1.21e+1   0.02e+1         
11.0  2.192  1.0          0.750      -0.692     1.83       3.12e+0   0.08e+0         
11.0  2.192  1.0          0.875      -1.148     2.61       2.84e-1   0.10e-1         
11.0  2.192  2.0          0.500      0.229      2.31       2.70e+1   0.05e+1         
11.0  2.192  2.0          0.625      0.135      2.41       1.07e+1   0.03e+1         
11.0  2.192  2.0          0.750      0.017      2.55       3.86e+0   0.06e+0         
11.0  2.192  2.0          0.877      -0.128     2.75       1.37e+0   0.04e+0         
11.0  2.192  2.0          1.000      -0.297     3.02       4.81e-1   0.16e-1         
11.0  2.192  2.0          1.125      -0.498     3.43       1.35e-1   0.07e-1         
11.0  2.192  2.0          1.250      -0.736     4.07       2.52e-2   0.12e-2         
11.0  2.192  2.0          1.375      -1.016     5.22       3.49e-3   0.34e-3         
11.0  2.192  2.0          1.500      -1.349     7.85       4.03e-4   0.81e-4         
11.0  2.192  3.0          0.625      0.430      3.39       6.30e+0   0.08e+0         
11.0  2.192  3.0          0.750      0.354      3.51       2.58e+0   0.04e+0         
11.0  2.192  3.0          0.875      0.263      3.66       1.02e+0   0.01e+0         
11.0  2.192  3.0          1.000      0.158      3.86       3.87e-1   0.07e-1         
11.0  2.192  3.0          1.125      0.036      4.12       1.32e-1   0.02e-1         
11.0  2.192  3.0          1.250      -0.103     4.45       4.23e-2   0.08e-2         
11.0  2.192  3.0          1.375      -0.260     4.90       1.23e-2   0.03e-2         
11.0  2.192  3.0          1.500      -0.435     5.53       3.00e-3   0.15e-3         
11.0  2.192  3.0          1.625      -0.631     6.45       6.01e-4   0.60e-4         
11.0  2.192  4.0          0.875      0.554      4.63       7.16e-1   0.08e-1         
11.0  2.192  4.0          1.001      0.476      4.01       2.85e-1   0.04e-1         
11.0  2.192  4.0          1.125      0.388      5.02       1.07e-1   0.02e-1         
11.0  2.192  4.0          1.250      0.287      5.28       3.59e-2   0.07e-2         
11.0  2.192  4.0          1.375      0.176      5.62       1.25e-2   0.04e-2         
11.0  2.192  4.0          1.500      0.052      6.03       4.00e-3   0.12e-3         
11.0  2.192  4.0          1.625      -0.084     6.50       1.07e-3   0.08e-3         
11.0  2.192  4.0          1.750      -0.234     7.29       3.49e-4   0.35e-4         
11.0  2.192  4.0          1.875      -0.398     8.20       7.89e-5   1.64e-5         
11.0  2.192  5.0          1.125      0.677      5.97       7.53e-2   0.13e-2         
11.0  2.192  5.0          1.250      0.598      6.20       2.72e-2   0.06e-2         
11.0  2.192  5.0          1.375      0.511      6.49       1.02e-2   0.03e-2         
11.0  2.192  5.0          1.500      0.414      6.83       3.27e-3   0.19e-3         
11.0  2.192  5.0          1.625      0.308      7.26       1.08e-3   0.10e-3         
11.0  2.192  5.0          1.750      0.193      7.78       2.69e-4   0.31e-4         
11.0  2.192  5.0          1.875      0.068      8.44       9.19e-5   1.42e-5         
11.0  2.192  6.0          1.250      0.871      7.16       1.82e-2   0.05e-2         
11.0  2.192  6.0          1.375      0.799      7.42       6.34e-3   0.29e-3         
11.0  2.192  6.0          1.500      0.994      7.72       2.05e-3   0.15e-3         
11.0  2.192  6.0          1.625      0.633      8.00       7.48e-4   0.70e-4         
11.0  2.192  6.0          1.750      0.538      8.53       1.87e-4   0.30e-4         
11.0  2.192  6.0          1.875      0.436      9.06       5.97e-5   1.29e-5         
11.0  2.192  6.0          1.999      0.327      9.70       1.97e-5   0.54e-5         
11.0  2.192  7.0          1.500      0.994      8.65       1.08e-3   0.10e-3         
11.0  2.192  7.0          1.625      0.920      8.99       3.47e-4   0.29e-4         
11.0  2.192  7.0          1.751      0.840      9.30       1.01e-4   0.14e-4         
11.0  2.192  7.0          1.875      0.754      9.84       4.39e-5   0.89e-5         
11.0  2.192  7.0          2.000      0.661      10.39      0.00e-6   4.22e-6         
11.0  2.192  8.0          1.625      1.186      9.92       1.50e-4   0.29e-4         
11.0  2.192  8.0          1.751      1.116      10.28      3.75e-5   0.73e-5         
11.0  2.192  8.0          1.875      1.042      10.69      6.71e-6   3.89e-6         
15.0  2.584  1.0          0.500      -0.249     1.36       4.64e+1   0.05e+1                          1.13   0.01  E+2
15.0  2.584  1.0          0.625      -0.502     1.52       1.59e+1   0.03e+1         
15.0  2.584  1.0          0.750      -0.855     1.83       3.91e+0   0.05e+0                          1.20   0.01  E+1
15.0  2.584  1.0          0.875      -1.379     2.61       3.65e-1   0.10e-1         
15.0  2.584  2.0          0.500      0.146      2.31       3.22e+1   0.02e+1         
15.0  2.584  2.0          0.625      0.038      2.41       1.29e+1   0.02e+1         
15.0  2.584  2.0          0.750      -0.097     2.55       4.92e+0   0.06e+0         
15.0  2.584  2.0          0.875      -0.262     2.75       1.82e+0   0.02e+0         
15.0  2.584  2.0          1.000      -0.458     3.02       6.15e-1   0.08e-1         
15.0  2.584  2.0          1.125      -0.690     3.43       1.70e-1   0.04e-1         
15.0  2.584  2.0          1.250      -0.963     4.07       4.11e-2   0.16e-2         
15.0  2.584  2.0          1.375      -1.285     5.22       6.01e-3   0.50e-3         
15.0  2.584  2.0          1.500      -1.660     7.85       6.33e-4   1.03e-4         
15.0  2.584  3.0          0.625      0.319      3.39       8.68e+0   0.11e+0         
15.0  2.584  3.0          0.750      0.232      3.51       3.73e+0   0.06e+0         
15.0  2.584  3.0          0.875      0.128      3.66       1.47e+0   0.02e+0         
15.0  2.584  3.0          1.000      0.006      3.86       5.42e-1   0.11e-1         
15.0  2.584  3.0          1.125      -0.134     4.12       1.99e-1   0.04e-1         
15.0  2.584  3.0          1.250      -0.294     4.45       6.71e-2   0.16e-2         
15.0  2.584  3.0          1.375      -0.474     4.90       1.98e-2   0.08e-2         
15.0  2.584  3.0          1.500      -0.676     5.53       6.23e-3   0.39e-3         
15.0  2.584  3.0          1.625      -0.903     6.45       1.10e-3   0.12e-3         
15.0  2.584  3.0          1.750      -1.153     7.93       2.59e-4   0.58e-4         
15.0  2.584  3.0          1.875      -1.433     10.65      5.46e-5   1.82e-5         
15.0  2.584  4.0          0.875      0.403      4.63       1.24e+0   0.02e+0         
15.0  2.584  4.0          1.000      0.314      4.81       4.89e-1   0.06e-1                          1.09   0.01  E+0
15.0  2.584  4.0          1.125      0.212      5.02       1.82e-1   0.03e-1         
15.0  2.584  4.0          1.250      0.097      5.28       6.93e-2   0.10e-2         
15.0  2.584  4.0          1.375      -0.031     5.62       2.45e-2   0.04e-2                          6.19   0.13  E-2
15.0  2.584  4.0          1.500      -0.174     6.04       7.89e-3   0.19e-3         
15.0  2.584  4.0          1.625      -0.331     6.58       2.39e-3   0.07e-3         
15.0  2.584  4.0          1.750      -0.503     7.29       6.66e-4   0.50e-4         
15.0  2.584  4.0          1.875      -0.691     8.28       1.54e-4   0.20e-4         
15.0  2.584  4.0          2.000      -0.896     9.72       5.17e-5   1.09e-5         
15.0  2.584  4.0          2.125      -1.118     11.97      0.67e-6   6.15e-6         
15.0  2.584  5.0          1.015      0.557      5.80       3.32e-1   0.07e-1         
15.0  2.584  5.0          1.125      0.486      5.97       1.51e-1   0.04e-1         
15.0  2.584  5.0          1.250      0.396      6.20       6.24e-2   0.20e-2         
15.0  2.584  5.0          1.375      0.295      6.49       2.29e-2   0.06e-2         
15.0  2.584  5.0          1.500      0.184      6.83       7.84e-3   0.28e-3         
15.0  2.584  5.0          1.625      0.062      7.26       3.04e-3   0.14e-3         
15.0  2.584  5.0          1.750      -0.070     7.78       9.15e-4   0.60e-4         
15.0  2.584  5.0          1.875      -0.214     8.44       2.92e-4   0.34e-4         
15.0  2.584  5.0          2.000      -0.370     9.30       6.20e-5   1.80e-5         
15.0  2.584  6.0          1.250      0.651      7.16       4.76e-2   0.08e-2                          1.09   0.02  E-1
15.0  2.584  6.0          1.375      0.568      7.42       1.90e-2   0.04e-2         
15.0  2.584  6.0          1.500      0.477      7.72       7.07e-3   0.25e-3         
15.0  2.584  6.0          1.625      0.377      0.09       2.59e-3   0.09e-3                          7.16   0.21  E-3
15.0  2.584  6.0          1.750      0.269      8.53       9.12e-4   0.67e-4         
15.0  2.584  6.0          1.875      0.151      9.06       2.75e-4   0.33e-4         
15.0  2.584  6.0          2.000      0.025      9.71       7.45e-5   1.77e-5         
15.0  2.584  7.0          1.500      0.734      8.65       5.66e-3   0.23e-3         
15.0  2.584  7.0          1.625      0.650      0.98       2.20e-3   0.11e-3         
15.0  2.584  7.0          1.750      0.558      9.38       8.86e-4   0.63e-4         
15.0  2.584  7.0          1.875      0.459      9.84       3.80e-4   0.43e-4         
15.0  2.584  7.0          2.000      0.352      10.39      1.19e-4   0.19e-4         
15.0  2.584  8.0          1.625      0.896      9.92       1.66e-3   0.05e-3                          4.32   0.13  E-3
15.0  2.584  8.0          1.750      0.817      10.28      6.32e-4   0.45e-4         
15.0  2.584  8.0          1.875      0.731      10.69      2.13e-4   0.15e-4                          6.10   0.30  E-4
15.0  2.584  8.0          2.000      0.630      11.10      9.91e-5   1.60e-5         
19.0  2.924  1.0          0.500      -0.317     1.36       5.04e+1   0.05e+1                          1.12   0.01  E+2
19.0  2.924  1.0          0.625      -0.599     1.52       1.75e+1   0.03e+1         
19.0  2.924  1.0          0.750      -0.992     1.83       4.43e+0   0.04e+0                          1.44   0.03  E+1
19.0  2.924  1.0          0.875      -1.577     2.61       4.78e-1   0.09e-1                          2.34   0.03  E+0
19.0  2.924  2.0          0.500      0.086      2.31       4.05e+1   0.05e+1         
19.0  2.924  2.0          0.625      -0.035     2.41       1.61e+1   0.02e+1         
19.0  2.924  2.0          0.750      -0.186     2.55       6.01e+0   0.12e+0         
19.0  2.924  2.0          0.875      -0.370     2.75       2.26e+0   0.05e+0         
19.0  2.924  2.0          1.000      -0.509     3.02       7.42e-1   0.14e-1         
19.0  2.924  2.0          1.125      -0.848     3.43       2.20e-1   0.10e-1         
19.0  2.924  2.0          1.250      -1.152     4.07       4.95e-2   0.28e-2         
19.0  2.924  2.0          1.375      -1.511     5.22       7.75e-3   0.82e-3         
19.0  2.924  2.0          1.500      -1.938     7.85       8.21e-4   3.67e-4         
19.0  2.924  3.0          0.750      0.141      3.51       4.56e+0   0.07e+0         
19.0  2.924  3.0          0.875      0.025      3.66       1.96e+0   0.02e+0         
19.0  2.924  3.0          1.000      -0.110     3.86       7.53e-1   0.12e-1         
19.0  2.924  3.0          1.125      -0.267     4.12       2.54e-1   0.03e-1         
19.0  2.924  3.0          1.250      -0.444     4.45       9.25e-2   0.19e-2         
19.0  2.924  3.0          1.375      -0.645     4.90       2.85e-2   0.08e-2         
19.0  2.924  3.0          1.500      -0.871     5.53       7.03e-3   0.46e-3         
19.0  2.924  3.0          1.625      -1.122     6.45       1.69e-3   0.08e-3         
19.0  2.924  3.0          1.750      -1.403     7.93       3.82e-4   0.56e-4         
19.0  2.924  4.0          0.875      0.294      4.63       1.61e+0   0.01e+0         
19.0  2.924  4.0          1.000      0.194      4.00       6.56e-1   0.09e-1         
19.0  2.924  4.0          1.125      0.081      5.02       2.51e-1   0.02e-1                          5.83   0.10  E-1
19.0  2.924  4.0          1.250      -0.040     5.28       9.30e-2   0.08e-2         
19.0  2.924  4.0          1.375      -0.191     5.62       3.43e-2   0.07e-2         
19.0  2.924  4.0          1.500      -0.350     6.03       1.22e-2   0.03e-2                          3.26   0.08  E-2
19.0  2.924  4.0          1.625      -0.525     6.58       3.86e-3   0.14e-3         
19.0  2.924  4.0          1.750      -0.717     7.30       1.15e-3   0.08e-3         
19.0  2.924  4.0          1.875      -0.926     8.28       2.49e-4   0.38e-4         
19.0  2.924  4.0          2.000      -1.155     9.72       6.94e-5   1.08e-5         
19.0  2.924  4.0          2.125      -1.403     11.97      1.68e-5   0.56e-5         
19.0  2.924  5.0          1.013      0.428      5.79       5.06e-1   0.14e-1         
19.0  2.924  5.0          1.125      0.347      5.97       2.22e-1   0.02e-1         
19.0  2.924  5.0          1.250      0.246      6.20       8.31e-2   0.09e-2         
19.0  2.924  5.0          1.375      0.134      6.49       3.40e-2   0.07e-2         
19.0  2.924  5.0          1.500      0.010      6.83       1.41e-2   0.09e-2         
19.0  2.924  5.0          1.625      -0.125     7.26       4.80e-3   0.22e-3         
19.0  2.924  5.0          1.750      -0.273     7.78       1.55e-3   0.12e-3         
19.0  2.924  5.0          1.875      -0.433     8.44       4.46e-4   0.28e-4         
19.0  2.924  5.0          2.000      -0.607     9.30       1.35e-4   0.15e-4         
19.0  2.924  5.0          2.125      -0.794     10.44      4.48e-5   0.55e-5         
19.0  2.924  5.0          2.252      -0.998     12.05      1.34e-5   0.68e-5         
19.0  2.924  5.0          2.375      -1.209     14.35      4.50e-6   2.44e-6         
19.0  2.924  6.0          1.250      0.492      7.16       7.42e-2   0.14e-2         
19.0  2.924  6.0          1.375      0.400      7.42       3.13e-2   0.08e-2                          7.59   0.16  E-2
