ϕ (deg)	xB=0.345	xB=0.374	xB=0.385	xB=0.391	xB=0.399
	Q2=1.453GeV2	Q2=1.552GeV2	Q2=1.589GeV2	Q2=1.608GeV2	Q2=1.633GeV2
	t=-0.170GeV2	t=-0.232GeV2	t=-0.278GeV2	t=-0.323GeV2	t=-0.370GeV2
7.5	0.8 ± 7.9 	+1.0	5.7 ± 7.9 	+0.0	-7.2 ± 10.8 	+0.0	4.2 ± 13.8 	+4.5	12.7 ± 20.7 	+0.0
		-3.0		-3.8		-13.5		-3.2		-16.2
22.5	5.2 ± 7.1 	+0.0	-2.2 ± 7.1 	+8.4	3.1 ± 8.9 	+9.9	10.8 ± 13.1 	+0.0	25.7 ± 16.3 	+2.6
		-9.4		-0.0		-1.8		-11.6		-1.3
37.5	16.5 ± 6.3 	+0.0	4.3 ± 6.1 	+1.9	20.3 ± 6.9 	+0.0	18.0 ± 8.7 	+3.8	25.2 ± 11.2 	+0.0
		-10.7		-3.4		-5.1		-0.0		-12.1
52.5	18.8 ± 5.2 	+1.1	13.4 ± 5.1 	+3.2	18.3 ± 5.7 	+0.0	18.0 ± 6.6 	+7.8	16.3 ± 8.3 	+2.6
		-1.1		-1.2		-4.2		-0.0		-1.8
67.5	19.9 ± 4.5 	+2.6	12.4 ± 4.6 	+0.0	5.4 ± 4.8 	+2.4	13.9 ± 5.4 	+0.4	11.7 ± 6.2 	+0.0
		-0.0		-4.0		-0.0		-4.6		-6.8
82.5	14.0 ± 4.0 	+1.6	12.2 ± 3.8 	+1.0	9.0 ± 4.1 	+6.1	5.7 ± 4.6 	+3.6	6.9 ± 4.9 	+0.6
		-0.0		-0.0		-0.0		-0.0		-2.2
97.5	15.8 ± 3.8 	+0.0	8.3 ± 3.5 	+1.6	8.6 ± 3.9 	+1.8	0.6 ± 4.2 	+4.5	18.9 ± 4.7 	+1.4
		-2.8		-1.1		-2.9		-0.0		-2.3
112.5	15.9 ± 3.6 	+1.9	13.6 ± 3.3 	+0.7	-2.2 ± 3.5 	+5.1	6.3 ± 3.9 	+1.3	2.2 ± 4.7 	+4.8
		-0.2		-1.7		-0.0		-1.4		-0.8
127.5	12.7 ± 3.3 	+1.5	6.7 ± 3.1 	+0.0	4.0 ± 3.2 	+4.7	2.0 ± 3.9 	+0.1	7.1 ± 5.8 	+0.3
		-0.3		-4.9		-0.0		-2.1		-7.2
142.5	10.0 ± 3.1 	+0.0	7.7 ± 2.8 	+0.0	4.2 ± 3.3 	+1.8	1.2 ± 4.5 	+0.6	-1.5 ± 7.1 	+4.4
		-3.0		-3.4		-0.0		-3.0		-2.8
157.5	6.8 ± 2.9 	+3.0	3.0 ± 2.7 	+1.1	8.0 ± 3.7 	+0.9	5.9 ± 5.6 	+4.0	9.1 ± 10.9 	+3.5
		-0.0		-0.0		-1.8		-0.7		-4.0
172.5	-3.5 ± 2.8 	+0.4	-1.6 ± 2.7 	+1.5	-2.0 ± 3.6 	+5.0	-1.8 ± 6.6 	+2.3	-18.3 ± 23.5 	+0.0
		-1.6		-0.3		-0.0		-0.0		-34.1
187.5	-1.9 ± 2.8 	+1.1	1.0 ± 2.6 	+1.0	0.2 ± 3.6 	+1.2	-13.9 ± 6.1 	+0.0	-28.1 ± 15.5 	+5.6
		-0.3		-0.4		-0.8		-4.2		-7.0
202.5	-5.3 ± 2.9 	+1.1	-1.8 ± 2.8 	+4.0	0.9 ± 3.4 	+0.0	1.8 ± 5.5 	+2.0	0.6 ± 9.0 	+0.0
		-0.3		-0.0		-3.4		-2.1		-8.1
217.5	-4.4 ± 3.0 	+2.0	-4.9 ± 2.9 	+1.2	-1.5 ± 3.4 	+1.1	-9.8 ± 4.8 	+1.2	0.1 ± 7.4 	+2.3
		-0.8		-0.9		-1.9		-3.2		-0.8
232.5	-8.0 ± 3.2 	+1.1	-8.7 ± 2.9 	+1.1	-5.2 ± 3.2 	+1.9	1.8 ± 3.9 	+1.8	-1.9 ± 5.6 	+2.3
		-0.4		-1.2		-0.0		-0.0		-0.2
247.5	-11.8 ± 3.4 	+0.0	-10.4 ± 3.2 	+2.4	-11.5 ± 3.5 	+0.7	-11.7 ± 4.1 	+2.4	-10.9 ± 5.1 	+0.8
		-5.7		-0.0		-0.2		-0.0		-1.3
262.5	-11.3 ± 3.6 	+0.0	-7.9 ± 3.5 	+2.4	-6.2 ± 3.7 	+0.8	-15.0 ± 4.3 	+0.4	-5.5 ± 4.6 	+0.3
		-3.4		-1.0		-1.5		-1.5		-5.1
277.5	-24.0 ± 3.9 	+2.4	-11.0 ± 3.6 	+0.0	-9.3 ± 3.9 	+1.0	-12.1 ± 4.6 	+1.6	-5.8 ± 4.9 	+0.9
		-0.2		-3.3		-0.0		-2.1		-0.5
292.5	-26.5 ± 4.4 	+2.4	-16.4 ± 4.2 	+0.9	-7.5 ± 4.5 	+0.9	-4.2 ± 5.2 	+0.0	-11.7 ± 6.1 	+9.2
		-0.0		-1.5		-1.7		-7.3		-0.0
307.5	-16.6 ± 5.0 	+5.2	-10.0 ± 4.7 	+3.1	-2.5 ± 5.3 	+0.0	1.8 ± 6.7 	+0.0	-11.7 ± 7.8 	+2.6
		-1.5		-0.0		-4.9		-4.2		-0.9
322.5	-18.7 ± 6.0 	+4.7	-11.8 ± 6.0 	+0.0	-17.4 ± 6.9 	+7.5	-15.0 ± 9.4 	+7.9	-14.9 ± 11.7 	+6.7
		-0.0		-5.5		-0.0		-0.0		-0.5
337.5	-5.7 ± 6.9 	+2.7	-6.8 ± 7.0 	+4.3	-3.0 ± 9.4 	+0.0	-8.7 ± 12.8 	+9.5	-28.7 ± 20.1 	+16.1
		-2.3		-0.0		-12.4		-0.0		-0.6
352.5	-1.4 ± 7.6 	+1.6	-4.3 ± 7.8 	+15.1	0.5 ± 11.2 	+2.6	-10.2 ± 15.5 	+0.0	-43.5 ± 23.1 	+8.2
		-1.9		-0.0		-3.8		-7.2		-0.0
