ϕ (deg)	xB=0.343	xB=0.368	xB=0.375	xB=0.379	xB=0.381
	Q2=1.820GeV2	Q2=1.933GeV2	Q2=1.964GeV2	Q2=1.986GeV2	Q2=1.999GeV2
	t=-0.172GeV2	t=-0.232GeV2	t=-0.278GeV2	t=-0.323GeV2	t=-0.371GeV2
7.5	-1.0 ± 6.0 	+1.0	3.1 ± 6.1 	+0.0	1.7 ± 7.7 	+0.9	7.3 ± 11.1 	+10.3	-12.1 ± 16.0 	+1.4
		-1.1		-4.8		-2.5		-0.0		-5.2
22.5	12.2 ± 5.7 	+2.3	-1.9 ± 5.4 	+1.9	4.1 ± 6.2 	+0.0	-0.1 ± 9.0 	+0.0	1.1 ± 12.0 	+3.6
		-0.0		-1.4		-7.5		-3.7		-1.4
37.5	16.8 ± 4.9 	+2.6	12.0 ± 4.5 	+1.6	16.1 ± 5.2 	+4.2	7.9 ± 6.1 	+3.2	4.1 ± 7.5 	+4.0
		-0.5		-2.0		-0.0		-3.4		-0.0
52.5	15.3 ± 4.5 	+1.9	19.3 ± 4.2 	+0.1	15.0 ± 4.3 	+3.2	22.4 ± 5.1 	+0.2	7.3 ± 5.8 	+4.4
		-0.9		-0.9		-0.0		-1.9		-0.2
67.5	15.8 ± 4.3 	+0.5	14.4 ± 3.7 	+0.1	1.8 ± 3.6 	+1.2	9.9 ± 4.0 	+0.1	9.9 ± 4.9 	+1.1
		-1.2		-3.0		-1.1		-1.6		-1.1
82.5	20.5 ± 3.9 	+2.0	10.8 ± 3.2 	+0.2	10.9 ± 3.2 	+2.0	5.1 ± 3.5 	+2.1	10.8 ± 3.8 	+0.0
		-0.0		-3.1		-0.0		-0.0		-1.4
97.5	15.1 ± 3.6 	+3.8	8.6 ± 2.8 	+2.6	4.8 ± 2.9 	+0.4	11.3 ± 3.0 	+0.6	4.7 ± 3.5 	+1.4
		-0.0		-0.5		-1.7		-0.4		-0.3
112.5	6.7 ± 3.4 	+0.0	4.3 ± 2.7 	+1.6	8.6 ± 2.7 	+0.2	1.5 ± 2.7 	+0.7	10.5 ± 3.2 	+1.5
		-1.7		-0.7		-1.3		-0.1		-1.2
127.5	14.9 ± 3.2 	+0.0	7.2 ± 2.4 	+0.4	6.4 ± 2.3 	+2.2	12.2 ± 2.6 	+0.0	2.1 ± 2.9 	+2.4
		-1.1		-1.0		-0.0		-1.9		-0.0
142.5	6.9 ± 3.0 	+2.4	7.0 ± 2.3 	+0.0	6.9 ± 2.2 	+0.8	1.0 ± 2.5 	+2.5	3.7 ± 2.8 	+0.0
		-0.0		-0.5		-0.0		-0.0		-3.6
157.5	5.7 ± 3.0 	+1.5	6.2 ± 2.3 	+1.3	5.4 ± 2.2 	+0.0	2.7 ± 2.6 	+1.4	0.1 ± 3.1 	+0.0
		-0.9		-0.7		-1.1		-0.0		-1.6
172.5	0.7 ± 2.9 	+2.0	0.4 ± 2.2 	+0.0	-1.5 ± 2.2 	+0.4	-0.3 ± 2.5 	+2.1	-7.0 ± 3.8 	+2.6
		-1.0		-1.5		-1.4		-0.4		-0.0
187.5	-0.3 ± 2.9 	+1.4	-0.7 ± 2.2 	+1.4	-1.4 ± 2.1 	+1.8	-3.6 ± 2.7 	+4.5	2.5 ± 3.7 	+2.7
		-0.0		-0.0		-0.5		-0.0		-0.0
202.5	-6.5 ± 3.0 	+1.6	-1.4 ± 2.3 	+0.0	-0.5 ± 2.1 	+0.0	1.5 ± 2.6 	+1.4	0.6 ± 3.4 	+0.0
		-0.7		-2.1		-1.3		-0.0		-1.3
217.5	-8.1 ± 3.1 	+0.0	-2.6 ± 2.3 	+0.0	-4.6 ± 2.2 	+2.4	2.3 ± 2.6 	+0.3	0.4 ± 3.1 	+1.6
		-1.9		-2.2		-0.0		-0.8		-0.0
232.5	-9.2 ± 3.1 	+0.4	-6.7 ± 2.4 	+0.0	-5.0 ± 2.3 	+0.0	0.0 ± 2.7 	+3.0	-4.4 ± 2.7 	+1.9
		-1.5		-2.1		-2.4		-0.0		-0.9
247.5	-11.8 ± 3.2 	+3.2	-10.6 ± 2.6 	+0.0	-7.0 ± 2.8 	+0.4	-8.1 ± 3.0 	+0.1	0.4 ± 3.1 	+0.0
		-0.0		-1.1		-0.8		-1.6		-2.5
262.5	-17.5 ± 3.4 	+3.0	-9.2 ± 2.8 	+1.9	-11.0 ± 3.0 	+1.1	-7.1 ± 3.1 	+2.7	-2.5 ± 3.2 	+2.2
		-0.0		-0.0		-1.0		-0.0		-0.7
277.5	-16.0 ± 3.8 	+0.5	-15.5 ± 3.0 	+0.0	-11.9 ± 3.2 	+1.8	0.6 ± 3.5 	+1.3	-6.1 ± 3.6 	+0.0
		-1.4		-3.5		-0.0		-0.0		-2.1
292.5	-17.2 ± 4.0 	+2.6	-16.0 ± 3.5 	+0.9	-9.9 ± 3.5 	+0.0	-8.9 ± 4.0 	+1.6	-1.6 ± 4.4 	+1.2
		-0.4		-0.0		-1.3		-1.5		-1.1
307.5	-16.3 ± 4.5 	+1.7	-10.3 ± 3.9 	+3.3	-6.0 ± 4.1 	+0.0	-8.4 ± 5.1 	+2.8	-7.1 ± 5.4 	+1.6
		-0.6		-0.0		-3.9		-0.0		-1.9
322.5	-11.6 ± 4.9 	+0.7	-16.5 ± 4.5 	+2.3	-9.6 ± 4.8 	+2.4	-20.1 ± 6.3 	+0.0	-7.9 ± 7.6 	+1.1
		-1.3		-0.0		-0.0		-3.6		-3.5
337.5	-1.9 ± 5.5 	+2.7	-7.2 ± 5.5 	+0.2	-17.2 ± 6.2 	+0.0	-3.3 ± 8.8 	+0.0	-1.2 ± 10.9 	+1.7
		-1.0		-2.3		-8.0		-6.7		-15.4
352.5	-3.6 ± 5.9 	+0.0	-0.7 ± 6.1 	+0.5	1.8 ± 7.4 	+6.3	-2.6 ± 10.6 	+3.0	-5.1 ± 16.7 	+13.3
		-2.2		-1.1		-1.3		-8.5		-0.0
